"Class"	Class Changes	Neighbourhood Changes
"http://www.ebi.ac.uk/efo/EFO_0000103"	2	0
"http://www.ebi.ac.uk/efo/EFO_0000192"	2	0
"http://www.ebi.ac.uk/efo/EFO_0000204"	2	0
"http://www.ebi.ac.uk/efo/EFO_0000217"	0	1
"http://www.ebi.ac.uk/efo/EFO_0000247"	2	0
"http://www.ebi.ac.uk/efo/EFO_0000272"	0	1
"http://www.ebi.ac.uk/efo/EFO_0000278"	0	1
"http://www.ebi.ac.uk/efo/EFO_0000280"	0	1
"http://www.ebi.ac.uk/efo/EFO_0000311"	0	1
"http://www.ebi.ac.uk/efo/EFO_0000322"	0	66
"http://www.ebi.ac.uk/efo/EFO_0000326"	1	3
"http://www.ebi.ac.uk/efo/EFO_0000334"	2	0
"http://www.ebi.ac.uk/efo/EFO_0000337"	0	1
"http://www.ebi.ac.uk/efo/EFO_0000338"	2	0
"http://www.ebi.ac.uk/efo/EFO_0000341"	0	1
"http://www.ebi.ac.uk/efo/EFO_0000342"	0	1
"http://www.ebi.ac.uk/efo/EFO_0000359"	2	0
"http://www.ebi.ac.uk/efo/EFO_0000367"	2	0
"http://www.ebi.ac.uk/efo/EFO_0000390"	2	0
"http://www.ebi.ac.uk/efo/EFO_0000398"	0	1
"http://www.ebi.ac.uk/efo/EFO_0000404"	0	1
"http://www.ebi.ac.uk/efo/EFO_0000405"	1	6
"http://www.ebi.ac.uk/efo/EFO_0000408"	0	3
"http://www.ebi.ac.uk/efo/EFO_0000463"	2	0
"http://www.ebi.ac.uk/efo/EFO_0000464"	0	1
"http://www.ebi.ac.uk/efo/EFO_0000491"	2	0
"http://www.ebi.ac.uk/efo/EFO_0000505"	2	0
"http://www.ebi.ac.uk/efo/EFO_0000533"	2	0
"http://www.ebi.ac.uk/efo/EFO_0000540"	1	37
"http://www.ebi.ac.uk/efo/EFO_0000544"	0	1
"http://www.ebi.ac.uk/efo/EFO_0000555"	0	1
"http://www.ebi.ac.uk/efo/EFO_0000632"	0	1
"http://www.ebi.ac.uk/efo/EFO_0000650"	0	1
"http://www.ebi.ac.uk/efo/EFO_0000665"	2	0
"http://www.ebi.ac.uk/efo/EFO_0000676"	0	1
"http://www.ebi.ac.uk/efo/EFO_0000684"	0	1
"http://www.ebi.ac.uk/efo/EFO_0000690"	2	0
"http://www.ebi.ac.uk/efo/EFO_0000697"	2	0
"http://www.ebi.ac.uk/efo/EFO_0000706"	0	1
"http://www.ebi.ac.uk/efo/EFO_0000717"	0	1
"http://www.ebi.ac.uk/efo/EFO_0000757"	2	0
"http://www.ebi.ac.uk/efo/EFO_0000768"	0	1
"http://www.ebi.ac.uk/efo/EFO_0000771"	1	4
"http://www.ebi.ac.uk/efo/EFO_0000772"	0	1
"http://www.ebi.ac.uk/efo/EFO_0000774"	2	0
"http://www.ebi.ac.uk/efo/EFO_0000775"	0	2
"http://www.ebi.ac.uk/efo/EFO_0000776"	0	1
"http://www.ebi.ac.uk/efo/EFO_0000777"	0	1
"http://www.ebi.ac.uk/efo/EFO_0000778"	0	1
"http://www.ebi.ac.uk/efo/EFO_0000780"	0	1
"http://www.ebi.ac.uk/efo/EFO_0000781"	0	1
"http://www.ebi.ac.uk/efo/EFO_0000783"	0	1
"http://www.ebi.ac.uk/efo/EFO_0001054"	0	1
"http://www.ebi.ac.uk/efo/EFO_0001060"	0	1
"http://www.ebi.ac.uk/efo/EFO_0001062"	0	1
"http://www.ebi.ac.uk/efo/EFO_0001064"	2	0
"http://www.ebi.ac.uk/efo/EFO_0001071"	0	1
"http://www.ebi.ac.uk/efo/EFO_0001076"	0	1
"http://www.ebi.ac.uk/efo/EFO_0001079"	2	0
"http://www.ebi.ac.uk/efo/EFO_0001086"	0	22
"http://www.ebi.ac.uk/efo/EFO_0001090"	0	22
"http://www.ebi.ac.uk/efo/EFO_0001092"	0	22
"http://www.ebi.ac.uk/efo/EFO_0001093"	0	22
"http://www.ebi.ac.uk/efo/EFO_0001095"	0	22
"http://www.ebi.ac.uk/efo/EFO_0001096"	0	22
"http://www.ebi.ac.uk/efo/EFO_0001099"	0	22
"http://www.ebi.ac.uk/efo/EFO_0001100"	0	22
"http://www.ebi.ac.uk/efo/EFO_0001107"	0	22
"http://www.ebi.ac.uk/efo/EFO_0001108"	0	22
"http://www.ebi.ac.uk/efo/EFO_0001109"	0	22
"http://www.ebi.ac.uk/efo/EFO_0001110"	0	22
"http://www.ebi.ac.uk/efo/EFO_0001111"	0	22
"http://www.ebi.ac.uk/efo/EFO_0001112"	0	22
"http://www.ebi.ac.uk/efo/EFO_0001113"	0	22
"http://www.ebi.ac.uk/efo/EFO_0001114"	0	22
"http://www.ebi.ac.uk/efo/EFO_0001115"	0	22
"http://www.ebi.ac.uk/efo/EFO_0001116"	0	22
"http://www.ebi.ac.uk/efo/EFO_0001117"	0	22
"http://www.ebi.ac.uk/efo/EFO_0001118"	0	22
"http://www.ebi.ac.uk/efo/EFO_0001119"	0	22
"http://www.ebi.ac.uk/efo/EFO_0001120"	0	22
"http://www.ebi.ac.uk/efo/EFO_0001121"	0	22
"http://www.ebi.ac.uk/efo/EFO_0001122"	0	22
"http://www.ebi.ac.uk/efo/EFO_0001123"	0	22
"http://www.ebi.ac.uk/efo/EFO_0001124"	0	22
"http://www.ebi.ac.uk/efo/EFO_0001125"	0	22
"http://www.ebi.ac.uk/efo/EFO_0001126"	0	22
"http://www.ebi.ac.uk/efo/EFO_0001127"	0	22
"http://www.ebi.ac.uk/efo/EFO_0001128"	0	22
"http://www.ebi.ac.uk/efo/EFO_0001129"	0	22
"http://www.ebi.ac.uk/efo/EFO_0001130"	0	22
"http://www.ebi.ac.uk/efo/EFO_0001131"	0	22
"http://www.ebi.ac.uk/efo/EFO_0001132"	0	22
"http://www.ebi.ac.uk/efo/EFO_0001133"	0	22
"http://www.ebi.ac.uk/efo/EFO_0001134"	0	22
"http://www.ebi.ac.uk/efo/EFO_0001135"	0	22
"http://www.ebi.ac.uk/efo/EFO_0001136"	0	22
"http://www.ebi.ac.uk/efo/EFO_0001137"	0	22
"http://www.ebi.ac.uk/efo/EFO_0001138"	0	22
"http://www.ebi.ac.uk/efo/EFO_0001139"	0	22
"http://www.ebi.ac.uk/efo/EFO_0001140"	0	22
"http://www.ebi.ac.uk/efo/EFO_0001141"	0	22
"http://www.ebi.ac.uk/efo/EFO_0001142"	0	22
"http://www.ebi.ac.uk/efo/EFO_0001143"	0	22
"http://www.ebi.ac.uk/efo/EFO_0001144"	0	22
"http://www.ebi.ac.uk/efo/EFO_0001145"	0	22
"http://www.ebi.ac.uk/efo/EFO_0001146"	0	22
"http://www.ebi.ac.uk/efo/EFO_0001147"	0	22
"http://www.ebi.ac.uk/efo/EFO_0001148"	0	22
"http://www.ebi.ac.uk/efo/EFO_0001149"	0	22
"http://www.ebi.ac.uk/efo/EFO_0001150"	0	22
"http://www.ebi.ac.uk/efo/EFO_0001151"	0	22
"http://www.ebi.ac.uk/efo/EFO_0001152"	0	22
"http://www.ebi.ac.uk/efo/EFO_0001153"	0	22
"http://www.ebi.ac.uk/efo/EFO_0001154"	0	22
"http://www.ebi.ac.uk/efo/EFO_0001155"	0	22
"http://www.ebi.ac.uk/efo/EFO_0001156"	0	22
"http://www.ebi.ac.uk/efo/EFO_0001157"	0	22
"http://www.ebi.ac.uk/efo/EFO_0001158"	0	22
"http://www.ebi.ac.uk/efo/EFO_0001159"	0	22
"http://www.ebi.ac.uk/efo/EFO_0001160"	0	22
"http://www.ebi.ac.uk/efo/EFO_0001161"	0	22
"http://www.ebi.ac.uk/efo/EFO_0001162"	0	22
"http://www.ebi.ac.uk/efo/EFO_0001167"	0	22
"http://www.ebi.ac.uk/efo/EFO_0001168"	0	22
"http://www.ebi.ac.uk/efo/EFO_0001169"	0	22
"http://www.ebi.ac.uk/efo/EFO_0001170"	0	22
"http://www.ebi.ac.uk/efo/EFO_0001171"	0	22
"http://www.ebi.ac.uk/efo/EFO_0001172"	0	22
"http://www.ebi.ac.uk/efo/EFO_0001173"	0	22
"http://www.ebi.ac.uk/efo/EFO_0001174"	0	22
"http://www.ebi.ac.uk/efo/EFO_0001175"	0	22
"http://www.ebi.ac.uk/efo/EFO_0001176"	0	22
"http://www.ebi.ac.uk/efo/EFO_0001177"	0	22
"http://www.ebi.ac.uk/efo/EFO_0001178"	0	22
"http://www.ebi.ac.uk/efo/EFO_0001179"	0	22
"http://www.ebi.ac.uk/efo/EFO_0001180"	0	22
"http://www.ebi.ac.uk/efo/EFO_0001181"	0	22
"http://www.ebi.ac.uk/efo/EFO_0001185"	0	22
"http://www.ebi.ac.uk/efo/EFO_0001187"	0	44
"http://www.ebi.ac.uk/efo/EFO_0001188"	0	44
"http://www.ebi.ac.uk/efo/EFO_0001189"	0	22
"http://www.ebi.ac.uk/efo/EFO_0001190"	0	22
"http://www.ebi.ac.uk/efo/EFO_0001191"	0	22
"http://www.ebi.ac.uk/efo/EFO_0001192"	0	22
"http://www.ebi.ac.uk/efo/EFO_0001195"	0	22
"http://www.ebi.ac.uk/efo/EFO_0001196"	0	22
"http://www.ebi.ac.uk/efo/EFO_0001199"	0	22
"http://www.ebi.ac.uk/efo/EFO_0001203"	0	44
"http://www.ebi.ac.uk/efo/EFO_0001205"	0	22
"http://www.ebi.ac.uk/efo/EFO_0001206"	0	22
"http://www.ebi.ac.uk/efo/EFO_0001208"	0	22
"http://www.ebi.ac.uk/efo/EFO_0001209"	0	22
"http://www.ebi.ac.uk/efo/EFO_0001211"	0	22
"http://www.ebi.ac.uk/efo/EFO_0001212"	0	22
"http://www.ebi.ac.uk/efo/EFO_0001214"	0	22
"http://www.ebi.ac.uk/efo/EFO_0001215"	0	22
"http://www.ebi.ac.uk/efo/EFO_0001216"	0	22
"http://www.ebi.ac.uk/efo/EFO_0001220"	0	22
"http://www.ebi.ac.uk/efo/EFO_0001221"	0	22
"http://www.ebi.ac.uk/efo/EFO_0001236"	0	22
"http://www.ebi.ac.uk/efo/EFO_0001240"	0	22
"http://www.ebi.ac.uk/efo/EFO_0001241"	0	22
"http://www.ebi.ac.uk/efo/EFO_0001242"	0	22
"http://www.ebi.ac.uk/efo/EFO_0001243"	0	22
"http://www.ebi.ac.uk/efo/EFO_0001244"	0	22
"http://www.ebi.ac.uk/efo/EFO_0001245"	0	22
"http://www.ebi.ac.uk/efo/EFO_0001246"	0	22
"http://www.ebi.ac.uk/efo/EFO_0001247"	0	22
"http://www.ebi.ac.uk/efo/EFO_0001253"	0	22
"http://www.ebi.ac.uk/efo/EFO_0001257"	0	22
"http://www.ebi.ac.uk/efo/EFO_0001258"	0	22
"http://www.ebi.ac.uk/efo/EFO_0001260"	0	22
"http://www.ebi.ac.uk/efo/EFO_0001262"	0	22
"http://www.ebi.ac.uk/efo/EFO_0001263"	0	22
"http://www.ebi.ac.uk/efo/EFO_0001264"	0	22
"http://www.ebi.ac.uk/efo/EFO_0001640"	22	110
"http://www.ebi.ac.uk/efo/EFO_0001667"	0	22
"http://www.ebi.ac.uk/efo/EFO_0002044"	0	22
"http://www.ebi.ac.uk/efo/EFO_0002045"	0	22
"http://www.ebi.ac.uk/efo/EFO_0002046"	0	22
"http://www.ebi.ac.uk/efo/EFO_0002048"	0	22
"http://www.ebi.ac.uk/efo/EFO_0002049"	0	22
"http://www.ebi.ac.uk/efo/EFO_0002050"	0	22
"http://www.ebi.ac.uk/efo/EFO_0002051"	0	22
"http://www.ebi.ac.uk/efo/EFO_0002052"	0	22
"http://www.ebi.ac.uk/efo/EFO_0002056"	0	22
"http://www.ebi.ac.uk/efo/EFO_0002057"	0	22
"http://www.ebi.ac.uk/efo/EFO_0002059"	0	22
"http://www.ebi.ac.uk/efo/EFO_0002060"	0	22
"http://www.ebi.ac.uk/efo/EFO_0002061"	0	22
"http://www.ebi.ac.uk/efo/EFO_0002062"	0	22
"http://www.ebi.ac.uk/efo/EFO_0002063"	0	22
"http://www.ebi.ac.uk/efo/EFO_0002064"	0	22
"http://www.ebi.ac.uk/efo/EFO_0002065"	0	22
"http://www.ebi.ac.uk/efo/EFO_0002066"	0	22
"http://www.ebi.ac.uk/efo/EFO_0002067"	0	44
"http://www.ebi.ac.uk/efo/EFO_0002069"	0	22
"http://www.ebi.ac.uk/efo/EFO_0002071"	0	44
"http://www.ebi.ac.uk/efo/EFO_0002072"	0	22
"http://www.ebi.ac.uk/efo/EFO_0002074"	0	22
"http://www.ebi.ac.uk/efo/EFO_0002075"	0	22
"http://www.ebi.ac.uk/efo/EFO_0002077"	0	22
"http://www.ebi.ac.uk/efo/EFO_0002079"	0	22
"http://www.ebi.ac.uk/efo/EFO_0002082"	0	22
"http://www.ebi.ac.uk/efo/EFO_0002083"	0	22
"http://www.ebi.ac.uk/efo/EFO_0002084"	0	22
"http://www.ebi.ac.uk/efo/EFO_0002085"	0	22
"http://www.ebi.ac.uk/efo/EFO_0002086"	0	22
"http://www.ebi.ac.uk/efo/EFO_0002094"	0	22
"http://www.ebi.ac.uk/efo/EFO_0002095"	0	22
"http://www.ebi.ac.uk/efo/EFO_0002096"	0	22
"http://www.ebi.ac.uk/efo/EFO_0002097"	0	22
"http://www.ebi.ac.uk/efo/EFO_0002098"	0	22
"http://www.ebi.ac.uk/efo/EFO_0002099"	0	22
"http://www.ebi.ac.uk/efo/EFO_0002100"	0	22
"http://www.ebi.ac.uk/efo/EFO_0002101"	0	22
"http://www.ebi.ac.uk/efo/EFO_0002102"	0	22
"http://www.ebi.ac.uk/efo/EFO_0002103"	0	22
"http://www.ebi.ac.uk/efo/EFO_0002104"	0	22
"http://www.ebi.ac.uk/efo/EFO_0002105"	0	22
"http://www.ebi.ac.uk/efo/EFO_0002106"	0	22
"http://www.ebi.ac.uk/efo/EFO_0002107"	0	22
"http://www.ebi.ac.uk/efo/EFO_0002108"	0	22
"http://www.ebi.ac.uk/efo/EFO_0002110"	0	22
"http://www.ebi.ac.uk/efo/EFO_0002113"	0	22
"http://www.ebi.ac.uk/efo/EFO_0002114"	0	22
"http://www.ebi.ac.uk/efo/EFO_0002115"	0	22
"http://www.ebi.ac.uk/efo/EFO_0002116"	0	22
"http://www.ebi.ac.uk/efo/EFO_0002117"	0	22
"http://www.ebi.ac.uk/efo/EFO_0002118"	0	22
"http://www.ebi.ac.uk/efo/EFO_0002119"	0	22
"http://www.ebi.ac.uk/efo/EFO_0002120"	0	22
"http://www.ebi.ac.uk/efo/EFO_0002121"	0	22
"http://www.ebi.ac.uk/efo/EFO_0002122"	0	22
"http://www.ebi.ac.uk/efo/EFO_0002123"	0	22
"http://www.ebi.ac.uk/efo/EFO_0002124"	0	22
"http://www.ebi.ac.uk/efo/EFO_0002125"	0	22
"http://www.ebi.ac.uk/efo/EFO_0002126"	0	22
"http://www.ebi.ac.uk/efo/EFO_0002127"	0	22
"http://www.ebi.ac.uk/efo/EFO_0002128"	0	22
"http://www.ebi.ac.uk/efo/EFO_0002130"	0	22
"http://www.ebi.ac.uk/efo/EFO_0002131"	0	22
"http://www.ebi.ac.uk/efo/EFO_0002132"	0	22
"http://www.ebi.ac.uk/efo/EFO_0002133"	0	22
"http://www.ebi.ac.uk/efo/EFO_0002134"	0	22
"http://www.ebi.ac.uk/efo/EFO_0002135"	0	22
"http://www.ebi.ac.uk/efo/EFO_0002136"	0	22
"http://www.ebi.ac.uk/efo/EFO_0002137"	0	22
"http://www.ebi.ac.uk/efo/EFO_0002138"	0	22
"http://www.ebi.ac.uk/efo/EFO_0002139"	0	22
"http://www.ebi.ac.uk/efo/EFO_0002140"	0	22
"http://www.ebi.ac.uk/efo/EFO_0002141"	0	22
"http://www.ebi.ac.uk/efo/EFO_0002142"	0	22
"http://www.ebi.ac.uk/efo/EFO_0002143"	0	22
"http://www.ebi.ac.uk/efo/EFO_0002144"	0	22
"http://www.ebi.ac.uk/efo/EFO_0002145"	0	22
"http://www.ebi.ac.uk/efo/EFO_0002146"	0	22
"http://www.ebi.ac.uk/efo/EFO_0002147"	0	22
"http://www.ebi.ac.uk/efo/EFO_0002148"	0	22
"http://www.ebi.ac.uk/efo/EFO_0002149"	0	22
"http://www.ebi.ac.uk/efo/EFO_0002150"	0	22
"http://www.ebi.ac.uk/efo/EFO_0002151"	0	22
"http://www.ebi.ac.uk/efo/EFO_0002152"	0	22
"http://www.ebi.ac.uk/efo/EFO_0002153"	0	22
"http://www.ebi.ac.uk/efo/EFO_0002154"	0	22
"http://www.ebi.ac.uk/efo/EFO_0002156"	0	22
"http://www.ebi.ac.uk/efo/EFO_0002157"	0	22
"http://www.ebi.ac.uk/efo/EFO_0002158"	0	22
"http://www.ebi.ac.uk/efo/EFO_0002159"	0	22
"http://www.ebi.ac.uk/efo/EFO_0002161"	0	22
"http://www.ebi.ac.uk/efo/EFO_0002162"	0	22
"http://www.ebi.ac.uk/efo/EFO_0002163"	0	22
"http://www.ebi.ac.uk/efo/EFO_0002164"	0	22
"http://www.ebi.ac.uk/efo/EFO_0002165"	0	22
"http://www.ebi.ac.uk/efo/EFO_0002166"	0	22
"http://www.ebi.ac.uk/efo/EFO_0002167"	0	44
"http://www.ebi.ac.uk/efo/EFO_0002168"	0	22
"http://www.ebi.ac.uk/efo/EFO_0002170"	0	22
"http://www.ebi.ac.uk/efo/EFO_0002171"	0	22
"http://www.ebi.ac.uk/efo/EFO_0002175"	0	22
"http://www.ebi.ac.uk/efo/EFO_0002176"	0	22
"http://www.ebi.ac.uk/efo/EFO_0002177"	0	22
"http://www.ebi.ac.uk/efo/EFO_0002178"	0	22
"http://www.ebi.ac.uk/efo/EFO_0002179"	0	22
"http://www.ebi.ac.uk/efo/EFO_0002180"	0	22
"http://www.ebi.ac.uk/efo/EFO_0002182"	0	22
"http://www.ebi.ac.uk/efo/EFO_0002183"	0	22
"http://www.ebi.ac.uk/efo/EFO_0002184"	0	22
"http://www.ebi.ac.uk/efo/EFO_0002185"	0	22
"http://www.ebi.ac.uk/efo/EFO_0002186"	0	22
"http://www.ebi.ac.uk/efo/EFO_0002187"	0	22
"http://www.ebi.ac.uk/efo/EFO_0002188"	0	22
"http://www.ebi.ac.uk/efo/EFO_0002189"	0	22
"http://www.ebi.ac.uk/efo/EFO_0002190"	0	22
"http://www.ebi.ac.uk/efo/EFO_0002191"	0	22
"http://www.ebi.ac.uk/efo/EFO_0002192"	0	22
"http://www.ebi.ac.uk/efo/EFO_0002193"	0	22
"http://www.ebi.ac.uk/efo/EFO_0002194"	0	22
"http://www.ebi.ac.uk/efo/EFO_0002195"	0	22
"http://www.ebi.ac.uk/efo/EFO_0002196"	0	22
"http://www.ebi.ac.uk/efo/EFO_0002197"	0	22
"http://www.ebi.ac.uk/efo/EFO_0002198"	0	22
"http://www.ebi.ac.uk/efo/EFO_0002199"	0	22
"http://www.ebi.ac.uk/efo/EFO_0002200"	0	22
"http://www.ebi.ac.uk/efo/EFO_0002202"	0	22
"http://www.ebi.ac.uk/efo/EFO_0002203"	0	22
"http://www.ebi.ac.uk/efo/EFO_0002204"	0	22
"http://www.ebi.ac.uk/efo/EFO_0002205"	0	22
"http://www.ebi.ac.uk/efo/EFO_0002207"	0	22
"http://www.ebi.ac.uk/efo/EFO_0002208"	0	22
"http://www.ebi.ac.uk/efo/EFO_0002209"	0	22
"http://www.ebi.ac.uk/efo/EFO_0002210"	0	22
"http://www.ebi.ac.uk/efo/EFO_0002211"	0	22
"http://www.ebi.ac.uk/efo/EFO_0002212"	0	22
"http://www.ebi.ac.uk/efo/EFO_0002213"	0	22
"http://www.ebi.ac.uk/efo/EFO_0002214"	0	22
"http://www.ebi.ac.uk/efo/EFO_0002215"	0	22
"http://www.ebi.ac.uk/efo/EFO_0002217"	0	22
"http://www.ebi.ac.uk/efo/EFO_0002218"	0	22
"http://www.ebi.ac.uk/efo/EFO_0002219"	0	22
"http://www.ebi.ac.uk/efo/EFO_0002220"	0	22
"http://www.ebi.ac.uk/efo/EFO_0002221"	0	22
"http://www.ebi.ac.uk/efo/EFO_0002222"	0	22
"http://www.ebi.ac.uk/efo/EFO_0002223"	0	22
"http://www.ebi.ac.uk/efo/EFO_0002224"	0	22
"http://www.ebi.ac.uk/efo/EFO_0002225"	0	22
"http://www.ebi.ac.uk/efo/EFO_0002226"	0	22
"http://www.ebi.ac.uk/efo/EFO_0002227"	0	22
"http://www.ebi.ac.uk/efo/EFO_0002228"	0	22
"http://www.ebi.ac.uk/efo/EFO_0002229"	0	22
"http://www.ebi.ac.uk/efo/EFO_0002230"	0	22
"http://www.ebi.ac.uk/efo/EFO_0002231"	0	22
"http://www.ebi.ac.uk/efo/EFO_0002232"	0	22
"http://www.ebi.ac.uk/efo/EFO_0002233"	0	22
"http://www.ebi.ac.uk/efo/EFO_0002234"	0	22
"http://www.ebi.ac.uk/efo/EFO_0002235"	0	22
"http://www.ebi.ac.uk/efo/EFO_0002236"	0	22
"http://www.ebi.ac.uk/efo/EFO_0002237"	0	22
"http://www.ebi.ac.uk/efo/EFO_0002238"	0	22
"http://www.ebi.ac.uk/efo/EFO_0002239"	0	22
"http://www.ebi.ac.uk/efo/EFO_0002241"	0	22
"http://www.ebi.ac.uk/efo/EFO_0002242"	0	22
"http://www.ebi.ac.uk/efo/EFO_0002243"	0	22
"http://www.ebi.ac.uk/efo/EFO_0002244"	0	22
"http://www.ebi.ac.uk/efo/EFO_0002245"	0	22
"http://www.ebi.ac.uk/efo/EFO_0002246"	0	22
"http://www.ebi.ac.uk/efo/EFO_0002248"	0	22
"http://www.ebi.ac.uk/efo/EFO_0002249"	0	22
"http://www.ebi.ac.uk/efo/EFO_0002250"	0	22
"http://www.ebi.ac.uk/efo/EFO_0002251"	0	22
"http://www.ebi.ac.uk/efo/EFO_0002252"	0	22
"http://www.ebi.ac.uk/efo/EFO_0002253"	0	22
"http://www.ebi.ac.uk/efo/EFO_0002254"	0	22
"http://www.ebi.ac.uk/efo/EFO_0002255"	0	22
"http://www.ebi.ac.uk/efo/EFO_0002256"	0	22
"http://www.ebi.ac.uk/efo/EFO_0002257"	0	22
"http://www.ebi.ac.uk/efo/EFO_0002258"	0	22
"http://www.ebi.ac.uk/efo/EFO_0002259"	0	22
"http://www.ebi.ac.uk/efo/EFO_0002260"	0	22
"http://www.ebi.ac.uk/efo/EFO_0002261"	0	22
"http://www.ebi.ac.uk/efo/EFO_0002262"	0	22
"http://www.ebi.ac.uk/efo/EFO_0002263"	0	22
"http://www.ebi.ac.uk/efo/EFO_0002264"	0	22
"http://www.ebi.ac.uk/efo/EFO_0002265"	0	22
"http://www.ebi.ac.uk/efo/EFO_0002266"	0	22
"http://www.ebi.ac.uk/efo/EFO_0002267"	0	22
"http://www.ebi.ac.uk/efo/EFO_0002268"	0	22
"http://www.ebi.ac.uk/efo/EFO_0002269"	0	22
"http://www.ebi.ac.uk/efo/EFO_0002270"	0	22
"http://www.ebi.ac.uk/efo/EFO_0002271"	0	22
"http://www.ebi.ac.uk/efo/EFO_0002272"	0	22
"http://www.ebi.ac.uk/efo/EFO_0002273"	0	22
"http://www.ebi.ac.uk/efo/EFO_0002274"	0	22
"http://www.ebi.ac.uk/efo/EFO_0002275"	0	22
"http://www.ebi.ac.uk/efo/EFO_0002276"	0	22
"http://www.ebi.ac.uk/efo/EFO_0002277"	0	22
"http://www.ebi.ac.uk/efo/EFO_0002278"	0	22
"http://www.ebi.ac.uk/efo/EFO_0002279"	0	22
"http://www.ebi.ac.uk/efo/EFO_0002280"	0	22
"http://www.ebi.ac.uk/efo/EFO_0002281"	0	22
"http://www.ebi.ac.uk/efo/EFO_0002282"	0	22
"http://www.ebi.ac.uk/efo/EFO_0002283"	0	22
"http://www.ebi.ac.uk/efo/EFO_0002284"	0	22
"http://www.ebi.ac.uk/efo/EFO_0002285"	0	22
"http://www.ebi.ac.uk/efo/EFO_0002286"	0	22
"http://www.ebi.ac.uk/efo/EFO_0002287"	0	22
"http://www.ebi.ac.uk/efo/EFO_0002288"	0	22
"http://www.ebi.ac.uk/efo/EFO_0002289"	0	22
"http://www.ebi.ac.uk/efo/EFO_0002290"	0	22
"http://www.ebi.ac.uk/efo/EFO_0002291"	0	22
"http://www.ebi.ac.uk/efo/EFO_0002292"	0	22
"http://www.ebi.ac.uk/efo/EFO_0002293"	0	22
"http://www.ebi.ac.uk/efo/EFO_0002294"	0	22
"http://www.ebi.ac.uk/efo/EFO_0002295"	0	22
"http://www.ebi.ac.uk/efo/EFO_0002296"	0	22
"http://www.ebi.ac.uk/efo/EFO_0002297"	0	22
"http://www.ebi.ac.uk/efo/EFO_0002298"	0	22
"http://www.ebi.ac.uk/efo/EFO_0002299"	0	22
"http://www.ebi.ac.uk/efo/EFO_0002300"	0	22
"http://www.ebi.ac.uk/efo/EFO_0002301"	0	22
"http://www.ebi.ac.uk/efo/EFO_0002302"	0	22
"http://www.ebi.ac.uk/efo/EFO_0002303"	0	22
"http://www.ebi.ac.uk/efo/EFO_0002304"	0	22
"http://www.ebi.ac.uk/efo/EFO_0002305"	0	22
"http://www.ebi.ac.uk/efo/EFO_0002306"	0	22
"http://www.ebi.ac.uk/efo/EFO_0002307"	0	22
"http://www.ebi.ac.uk/efo/EFO_0002308"	0	22
"http://www.ebi.ac.uk/efo/EFO_0002309"	0	22
"http://www.ebi.ac.uk/efo/EFO_0002310"	0	22
"http://www.ebi.ac.uk/efo/EFO_0002311"	0	22
"http://www.ebi.ac.uk/efo/EFO_0002312"	0	22
"http://www.ebi.ac.uk/efo/EFO_0002313"	0	22
"http://www.ebi.ac.uk/efo/EFO_0002314"	0	22
"http://www.ebi.ac.uk/efo/EFO_0002315"	0	22
"http://www.ebi.ac.uk/efo/EFO_0002316"	0	22
"http://www.ebi.ac.uk/efo/EFO_0002317"	0	22
"http://www.ebi.ac.uk/efo/EFO_0002318"	0	22
"http://www.ebi.ac.uk/efo/EFO_0002319"	0	22
"http://www.ebi.ac.uk/efo/EFO_0002320"	0	22
"http://www.ebi.ac.uk/efo/EFO_0002321"	0	22
"http://www.ebi.ac.uk/efo/EFO_0002322"	0	22
"http://www.ebi.ac.uk/efo/EFO_0002323"	0	22
"http://www.ebi.ac.uk/efo/EFO_0002324"	0	22
"http://www.ebi.ac.uk/efo/EFO_0002325"	0	22
"http://www.ebi.ac.uk/efo/EFO_0002326"	0	22
"http://www.ebi.ac.uk/efo/EFO_0002327"	0	22
"http://www.ebi.ac.uk/efo/EFO_0002328"	0	22
"http://www.ebi.ac.uk/efo/EFO_0002329"	0	22
"http://www.ebi.ac.uk/efo/EFO_0002330"	0	22
"http://www.ebi.ac.uk/efo/EFO_0002331"	0	22
"http://www.ebi.ac.uk/efo/EFO_0002332"	0	22
"http://www.ebi.ac.uk/efo/EFO_0002333"	0	22
"http://www.ebi.ac.uk/efo/EFO_0002334"	0	22
"http://www.ebi.ac.uk/efo/EFO_0002336"	0	22
"http://www.ebi.ac.uk/efo/EFO_0002337"	0	22
"http://www.ebi.ac.uk/efo/EFO_0002338"	0	22
"http://www.ebi.ac.uk/efo/EFO_0002339"	0	22
"http://www.ebi.ac.uk/efo/EFO_0002340"	0	22
"http://www.ebi.ac.uk/efo/EFO_0002341"	0	22
"http://www.ebi.ac.uk/efo/EFO_0002342"	0	22
"http://www.ebi.ac.uk/efo/EFO_0002343"	0	22
"http://www.ebi.ac.uk/efo/EFO_0002344"	0	22
"http://www.ebi.ac.uk/efo/EFO_0002345"	0	22
"http://www.ebi.ac.uk/efo/EFO_0002346"	0	22
"http://www.ebi.ac.uk/efo/EFO_0002347"	0	22
"http://www.ebi.ac.uk/efo/EFO_0002348"	0	22
"http://www.ebi.ac.uk/efo/EFO_0002349"	0	22
"http://www.ebi.ac.uk/efo/EFO_0002350"	0	22
"http://www.ebi.ac.uk/efo/EFO_0002351"	0	22
"http://www.ebi.ac.uk/efo/EFO_0002352"	0	22
"http://www.ebi.ac.uk/efo/EFO_0002353"	0	22
"http://www.ebi.ac.uk/efo/EFO_0002354"	0	22
"http://www.ebi.ac.uk/efo/EFO_0002355"	0	22
"http://www.ebi.ac.uk/efo/EFO_0002356"	0	22
"http://www.ebi.ac.uk/efo/EFO_0002357"	0	22
"http://www.ebi.ac.uk/efo/EFO_0002358"	0	22
"http://www.ebi.ac.uk/efo/EFO_0002359"	0	22
"http://www.ebi.ac.uk/efo/EFO_0002360"	0	22
"http://www.ebi.ac.uk/efo/EFO_0002361"	0	22
"http://www.ebi.ac.uk/efo/EFO_0002362"	0	22
"http://www.ebi.ac.uk/efo/EFO_0002363"	0	22
"http://www.ebi.ac.uk/efo/EFO_0002364"	0	22
"http://www.ebi.ac.uk/efo/EFO_0002365"	0	22
"http://www.ebi.ac.uk/efo/EFO_0002366"	0	22
"http://www.ebi.ac.uk/efo/EFO_0002367"	0	22
"http://www.ebi.ac.uk/efo/EFO_0002368"	0	22
"http://www.ebi.ac.uk/efo/EFO_0002369"	0	22
"http://www.ebi.ac.uk/efo/EFO_0002370"	0	22
"http://www.ebi.ac.uk/efo/EFO_0002371"	0	22
"http://www.ebi.ac.uk/efo/EFO_0002372"	0	22
"http://www.ebi.ac.uk/efo/EFO_0002373"	0	22
"http://www.ebi.ac.uk/efo/EFO_0002374"	0	22
"http://www.ebi.ac.uk/efo/EFO_0002375"	0	22
"http://www.ebi.ac.uk/efo/EFO_0002376"	0	22
"http://www.ebi.ac.uk/efo/EFO_0002377"	0	22
"http://www.ebi.ac.uk/efo/EFO_0002378"	0	22
"http://www.ebi.ac.uk/efo/EFO_0002379"	0	22
"http://www.ebi.ac.uk/efo/EFO_0002380"	0	22
"http://www.ebi.ac.uk/efo/EFO_0002382"	0	22
"http://www.ebi.ac.uk/efo/EFO_0002383"	0	22
"http://www.ebi.ac.uk/efo/EFO_0002384"	0	22
"http://www.ebi.ac.uk/efo/EFO_0002385"	0	22
"http://www.ebi.ac.uk/efo/EFO_0002386"	0	22
"http://www.ebi.ac.uk/efo/EFO_0002387"	0	22
"http://www.ebi.ac.uk/efo/EFO_0002389"	0	22
"http://www.ebi.ac.uk/efo/EFO_0002390"	0	22
"http://www.ebi.ac.uk/efo/EFO_0002392"	0	22
"http://www.ebi.ac.uk/efo/EFO_0002393"	0	22
"http://www.ebi.ac.uk/efo/EFO_0002498"	0	1
"http://www.ebi.ac.uk/efo/EFO_0002502"	0	1
"http://www.ebi.ac.uk/efo/EFO_0002505"	2	0
"http://www.ebi.ac.uk/efo/EFO_0002611"	2	0
"http://www.ebi.ac.uk/efo/EFO_0002619"	2	0
"http://www.ebi.ac.uk/efo/EFO_0002622"	0	1
"http://www.ebi.ac.uk/efo/EFO_0002623"	0	2
"http://www.ebi.ac.uk/efo/EFO_0002632"	2	0
"http://www.ebi.ac.uk/efo/EFO_0002705"	0	22
"http://www.ebi.ac.uk/efo/EFO_0002706"	0	22
"http://www.ebi.ac.uk/efo/EFO_0002707"	0	22
"http://www.ebi.ac.uk/efo/EFO_0002709"	0	22
"http://www.ebi.ac.uk/efo/EFO_0002710"	0	22
"http://www.ebi.ac.uk/efo/EFO_0002711"	0	22
"http://www.ebi.ac.uk/efo/EFO_0002712"	0	22
"http://www.ebi.ac.uk/efo/EFO_0002713"	0	44
"http://www.ebi.ac.uk/efo/EFO_0002714"	0	22
"http://www.ebi.ac.uk/efo/EFO_0002715"	0	22
"http://www.ebi.ac.uk/efo/EFO_0002716"	0	22
"http://www.ebi.ac.uk/efo/EFO_0002717"	0	22
"http://www.ebi.ac.uk/efo/EFO_0002777"	0	44
"http://www.ebi.ac.uk/efo/EFO_0002778"	0	44
"http://www.ebi.ac.uk/efo/EFO_0002779"	0	22
"http://www.ebi.ac.uk/efo/EFO_0002782"	0	44
"http://www.ebi.ac.uk/efo/EFO_0002783"	0	44
"http://www.ebi.ac.uk/efo/EFO_0002784"	0	44
"http://www.ebi.ac.uk/efo/EFO_0002785"	0	66
"http://www.ebi.ac.uk/efo/EFO_0002786"	0	66
"http://www.ebi.ac.uk/efo/EFO_0002787"	0	44
"http://www.ebi.ac.uk/efo/EFO_0002788"	0	66
"http://www.ebi.ac.uk/efo/EFO_0002789"	0	66
"http://www.ebi.ac.uk/efo/EFO_0002790"	0	66
"http://www.ebi.ac.uk/efo/EFO_0002791"	0	44
"http://www.ebi.ac.uk/efo/EFO_0002792"	0	44
"http://www.ebi.ac.uk/efo/EFO_0002793"	0	44
"http://www.ebi.ac.uk/efo/EFO_0002794"	0	44
"http://www.ebi.ac.uk/efo/EFO_0002795"	0	44
"http://www.ebi.ac.uk/efo/EFO_0002796"	0	44
"http://www.ebi.ac.uk/efo/EFO_0002797"	0	44
"http://www.ebi.ac.uk/efo/EFO_0002798"	0	22
"http://www.ebi.ac.uk/efo/EFO_0002799"	0	22
"http://www.ebi.ac.uk/efo/EFO_0002800"	0	22
"http://www.ebi.ac.uk/efo/EFO_0002801"	0	44
"http://www.ebi.ac.uk/efo/EFO_0002802"	0	22
"http://www.ebi.ac.uk/efo/EFO_0002803"	0	22
"http://www.ebi.ac.uk/efo/EFO_0002804"	0	22
"http://www.ebi.ac.uk/efo/EFO_0002810"	0	22
"http://www.ebi.ac.uk/efo/EFO_0002813"	0	22
"http://www.ebi.ac.uk/efo/EFO_0002814"	0	22
"http://www.ebi.ac.uk/efo/EFO_0002815"	0	22
"http://www.ebi.ac.uk/efo/EFO_0002817"	0	22
"http://www.ebi.ac.uk/efo/EFO_0002818"	0	22
"http://www.ebi.ac.uk/efo/EFO_0002819"	0	22
"http://www.ebi.ac.uk/efo/EFO_0002823"	0	22
"http://www.ebi.ac.uk/efo/EFO_0002824"	0	22
"http://www.ebi.ac.uk/efo/EFO_0002827"	0	22
"http://www.ebi.ac.uk/efo/EFO_0002828"	0	22
"http://www.ebi.ac.uk/efo/EFO_0002830"	0	22
"http://www.ebi.ac.uk/efo/EFO_0002831"	0	22
"http://www.ebi.ac.uk/efo/EFO_0002832"	0	22
"http://www.ebi.ac.uk/efo/EFO_0002837"	0	22
"http://www.ebi.ac.uk/efo/EFO_0002838"	0	22
"http://www.ebi.ac.uk/efo/EFO_0002839"	0	22
"http://www.ebi.ac.uk/efo/EFO_0002840"	0	22
"http://www.ebi.ac.uk/efo/EFO_0002841"	0	22
"http://www.ebi.ac.uk/efo/EFO_0002842"	0	22
"http://www.ebi.ac.uk/efo/EFO_0002843"	0	22
"http://www.ebi.ac.uk/efo/EFO_0002844"	0	22
"http://www.ebi.ac.uk/efo/EFO_0002845"	0	22
"http://www.ebi.ac.uk/efo/EFO_0002846"	0	22
"http://www.ebi.ac.uk/efo/EFO_0002847"	0	22
"http://www.ebi.ac.uk/efo/EFO_0002848"	0	22
"http://www.ebi.ac.uk/efo/EFO_0002849"	0	22
"http://www.ebi.ac.uk/efo/EFO_0002850"	0	22
"http://www.ebi.ac.uk/efo/EFO_0002851"	0	22
"http://www.ebi.ac.uk/efo/EFO_0002852"	0	22
"http://www.ebi.ac.uk/efo/EFO_0002853"	0	22
"http://www.ebi.ac.uk/efo/EFO_0002854"	0	22
"http://www.ebi.ac.uk/efo/EFO_0002855"	0	22
"http://www.ebi.ac.uk/efo/EFO_0002856"	0	22
"http://www.ebi.ac.uk/efo/EFO_0002857"	0	22
"http://www.ebi.ac.uk/efo/EFO_0002858"	0	22
"http://www.ebi.ac.uk/efo/EFO_0002859"	0	22
"http://www.ebi.ac.uk/efo/EFO_0002860"	0	22
"http://www.ebi.ac.uk/efo/EFO_0002861"	0	22
"http://www.ebi.ac.uk/efo/EFO_0002862"	0	22
"http://www.ebi.ac.uk/efo/EFO_0002863"	0	22
"http://www.ebi.ac.uk/efo/EFO_0002864"	0	22
"http://www.ebi.ac.uk/efo/EFO_0002865"	0	22
"http://www.ebi.ac.uk/efo/EFO_0002866"	0	22
"http://www.ebi.ac.uk/efo/EFO_0002867"	0	22
"http://www.ebi.ac.uk/efo/EFO_0002869"	0	22
"http://www.ebi.ac.uk/efo/EFO_0002870"	0	22
"http://www.ebi.ac.uk/efo/EFO_0002872"	0	22
"http://www.ebi.ac.uk/efo/EFO_0002873"	0	22
"http://www.ebi.ac.uk/efo/EFO_0002874"	0	22
"http://www.ebi.ac.uk/efo/EFO_0002875"	0	22
"http://www.ebi.ac.uk/efo/EFO_0002876"	0	22
"http://www.ebi.ac.uk/efo/EFO_0002877"	0	22
"http://www.ebi.ac.uk/efo/EFO_0002878"	0	22
"http://www.ebi.ac.uk/efo/EFO_0002879"	0	22
"http://www.ebi.ac.uk/efo/EFO_0002880"	0	22
"http://www.ebi.ac.uk/efo/EFO_0002881"	0	22
"http://www.ebi.ac.uk/efo/EFO_0002882"	0	22
"http://www.ebi.ac.uk/efo/EFO_0002888"	22	110
"http://www.ebi.ac.uk/efo/EFO_0002895"	0	22
"http://www.ebi.ac.uk/efo/EFO_0002923"	2	0
"http://www.ebi.ac.uk/efo/EFO_0002926"	22	110
"http://www.ebi.ac.uk/efo/EFO_0002939"	0	1
"http://www.ebi.ac.uk/efo/EFO_0002957"	0	22
"http://www.ebi.ac.uk/efo/EFO_0002959"	0	22
"http://www.ebi.ac.uk/efo/EFO_0002960"	0	22
"http://www.ebi.ac.uk/efo/EFO_0002961"	0	22
"http://www.ebi.ac.uk/efo/EFO_0002970"	1	3
"http://www.ebi.ac.uk/efo/EFO_0003030"	0	1
"http://www.ebi.ac.uk/efo/EFO_0003033"	0	1
"http://www.ebi.ac.uk/efo/EFO_0003037"	0	22
"http://www.ebi.ac.uk/efo/EFO_0003039"	0	22
"http://www.ebi.ac.uk/efo/EFO_0003042"	0	22
"http://www.ebi.ac.uk/efo/EFO_0003043"	0	22
"http://www.ebi.ac.uk/efo/EFO_0003044"	0	22
"http://www.ebi.ac.uk/efo/EFO_0003045"	0	22
"http://www.ebi.ac.uk/efo/EFO_0003048"	0	22
"http://www.ebi.ac.uk/efo/EFO_0003055"	0	22
"http://www.ebi.ac.uk/efo/EFO_0003056"	0	22
"http://www.ebi.ac.uk/efo/EFO_0003061"	0	22
"http://www.ebi.ac.uk/efo/EFO_0003072"	0	22
"http://www.ebi.ac.uk/efo/EFO_0003079"	2	0
"http://www.ebi.ac.uk/efo/EFO_0003081"	0	22
"http://www.ebi.ac.uk/efo/EFO_0003082"	0	22
"http://www.ebi.ac.uk/efo/EFO_0003089"	2	0
"http://www.ebi.ac.uk/efo/EFO_0003090"	2	0
"http://www.ebi.ac.uk/efo/EFO_0003091"	2	0
"http://www.ebi.ac.uk/efo/EFO_0003092"	2	0
"http://www.ebi.ac.uk/efo/EFO_0003094"	0	1
"http://www.ebi.ac.uk/efo/EFO_0003097"	0	1
"http://www.ebi.ac.uk/efo/EFO_0003098"	2	0
"http://www.ebi.ac.uk/efo/EFO_0003102"	0	1
"http://www.ebi.ac.uk/efo/EFO_0003103"	0	1
"http://www.ebi.ac.uk/efo/EFO_0003107"	2	0
"http://www.ebi.ac.uk/efo/EFO_0003109"	2	0
"http://www.ebi.ac.uk/efo/EFO_0003111"	2	0
"http://www.ebi.ac.uk/efo/EFO_0003112"	2	0
"http://www.ebi.ac.uk/efo/EFO_0003115"	0	22
"http://www.ebi.ac.uk/efo/EFO_0003116"	0	22
"http://www.ebi.ac.uk/efo/EFO_0003117"	0	22
"http://www.ebi.ac.uk/efo/EFO_0003118"	0	22
"http://www.ebi.ac.uk/efo/EFO_0003119"	0	22
"http://www.ebi.ac.uk/efo/EFO_0003120"	0	22
"http://www.ebi.ac.uk/efo/EFO_0003121"	0	22
"http://www.ebi.ac.uk/efo/EFO_0003122"	0	22
"http://www.ebi.ac.uk/efo/EFO_0003123"	0	22
"http://www.ebi.ac.uk/efo/EFO_0003124"	0	22
"http://www.ebi.ac.uk/efo/EFO_0003125"	0	22
"http://www.ebi.ac.uk/efo/EFO_0003126"	0	22
"http://www.ebi.ac.uk/efo/EFO_0003127"	0	22
"http://www.ebi.ac.uk/efo/EFO_0003128"	0	22
"http://www.ebi.ac.uk/efo/EFO_0003129"	0	22
"http://www.ebi.ac.uk/efo/EFO_0003130"	0	22
"http://www.ebi.ac.uk/efo/EFO_0003131"	0	22
"http://www.ebi.ac.uk/efo/EFO_0003132"	0	22
"http://www.ebi.ac.uk/efo/EFO_0003133"	0	22
"http://www.ebi.ac.uk/efo/EFO_0003134"	0	22
"http://www.ebi.ac.uk/efo/EFO_0003135"	0	22
"http://www.ebi.ac.uk/efo/EFO_0003136"	0	22
"http://www.ebi.ac.uk/efo/EFO_0003137"	0	22
"http://www.ebi.ac.uk/efo/EFO_0003138"	0	22
"http://www.ebi.ac.uk/efo/EFO_0003139"	0	22
"http://www.ebi.ac.uk/efo/EFO_0003140"	0	22
"http://www.ebi.ac.uk/efo/EFO_0003142"	0	22
"http://www.ebi.ac.uk/efo/EFO_0003767"	0	1
"http://www.ebi.ac.uk/efo/EFO_0003775"	0	1
"http://www.ebi.ac.uk/efo/EFO_0003778"	0	1
"http://www.ebi.ac.uk/efo/EFO_0003785"	0	1
"http://www.ebi.ac.uk/efo/EFO_0003818"	1	4
"http://www.ebi.ac.uk/efo/EFO_0003832"	0	1
"http://www.ebi.ac.uk/efo/EFO_0003867"	0	1
"http://www.ebi.ac.uk/efo/EFO_0003872"	0	1
"http://www.ebi.ac.uk/efo/EFO_0003878"	0	1
"http://www.ebi.ac.uk/efo/EFO_0003899"	0	1
"http://www.ebi.ac.uk/efo/EFO_0003903"	2	0
"http://www.ebi.ac.uk/efo/EFO_0003910"	2	0
"http://www.ebi.ac.uk/efo/EFO_0003921"	0	1
"http://www.ebi.ac.uk/efo/EFO_0003928"	0	1
"http://www.ebi.ac.uk/efo/EFO_0003932"	0	1
"http://www.ebi.ac.uk/efo/EFO_0003934"	0	1
"http://www.ebi.ac.uk/efo/EFO_0003948"	0	1
"http://www.ebi.ac.uk/efo/EFO_0003954"	2	0
"http://www.ebi.ac.uk/efo/EFO_0003955"	0	1
"http://www.ebi.ac.uk/efo/EFO_0004121"	2	0
"http://www.ebi.ac.uk/efo/EFO_0004122"	2	0
"http://www.ebi.ac.uk/efo/EFO_0004131"	2	0
"http://www.ebi.ac.uk/efo/EFO_0004132"	2	0
"http://www.ebi.ac.uk/efo/EFO_0004139"	2	0
"http://www.ebi.ac.uk/efo/EFO_0004140"	2	0
"http://www.ebi.ac.uk/efo/EFO_0004145"	0	1
"http://www.ebi.ac.uk/efo/EFO_0004147"	2	0
"http://www.ebi.ac.uk/efo/EFO_0004148"	2	0
"http://www.ebi.ac.uk/efo/EFO_0004150"	2	0
"http://www.ebi.ac.uk/efo/EFO_0004151"	2	0
"http://www.ebi.ac.uk/efo/EFO_0004153"	2	0
"http://www.ebi.ac.uk/efo/EFO_0004209"	2	0
"http://www.ebi.ac.uk/efo/EFO_0004217"	2	0
"http://www.ebi.ac.uk/efo/EFO_0004223"	2	0
"http://www.ebi.ac.uk/efo/EFO_0004232"	0	1
"http://www.ebi.ac.uk/efo/EFO_0004241"	2	0
"http://www.ebi.ac.uk/efo/EFO_0004244"	0	1
"http://www.ebi.ac.uk/efo/EFO_0004246"	0	1
"http://www.ebi.ac.uk/efo/EFO_0004249"	0	1
"http://www.ebi.ac.uk/efo/EFO_0004250"	2	0
"http://www.ebi.ac.uk/efo/EFO_0004268"	0	1
"http://www.ebi.ac.uk/efo/EFO_0004275"	2	0
"http://www.ebi.ac.uk/efo/EFO_0004389"	0	22
"http://www.ebi.ac.uk/efo/EFO_0004523"	2	0
"http://www.ebi.ac.uk/efo/EFO_0004538"	2	0
"http://www.ebi.ac.uk/efo/EFO_0004599"	0	1
"http://www.ebi.ac.uk/efo/EFO_0004607"	0	1
"http://www.ebi.ac.uk/efo/EFO_0004608"	0	1
"http://www.ebi.ac.uk/efo/EFO_0004610"	0	1
"http://www.ebi.ac.uk/efo/EFO_0004689"	2	0
"http://www.ebi.ac.uk/efo/EFO_0004691"	2	0
"http://www.ebi.ac.uk/efo/EFO_0004692"	2	0
"http://www.ebi.ac.uk/efo/EFO_0004707"	0	1
"http://www.ebi.ac.uk/efo/EFO_0004711"	0	1
"http://www.ebi.ac.uk/efo/EFO_0004716"	2	0
"http://www.ebi.ac.uk/efo/EFO_0004721"	2	0
"http://www.ebi.ac.uk/efo/EFO_0004797"	2	0
"http://www.ebi.ac.uk/efo/EFO_0004883"	2	0
"http://www.ebi.ac.uk/efo/EFO_0004921"	0	22
"http://www.ebi.ac.uk/efo/EFO_0004922"	0	44
"http://www.ebi.ac.uk/efo/EFO_0004924"	2	0
"http://www.ebi.ac.uk/efo/EFO_0005140"	0	1
"http://www.ebi.ac.uk/efo/EFO_0005224"	0	1
"http://www.ebi.ac.uk/efo/EFO_0005231"	0	22
"http://www.ebi.ac.uk/efo/EFO_0005233"	0	22
"http://www.ebi.ac.uk/efo/EFO_0005234"	0	22
"http://www.ebi.ac.uk/efo/EFO_0005236"	0	22
"http://www.ebi.ac.uk/efo/EFO_0005237"	0	22
"http://www.ebi.ac.uk/efo/EFO_0005263"	0	22
"http://www.ebi.ac.uk/efo/EFO_0005264"	0	22
"http://www.ebi.ac.uk/efo/EFO_0005265"	0	22
"http://www.ebi.ac.uk/efo/EFO_0005285"	0	22
"http://www.geneontology.org/formats/oboInOwl#ObsoleteClass"	0	130
"http://www.orpha.net/ORDO/Orphanet_101351"	0	1
"http://www.orpha.net/ORDO/Orphanet_108971"	1	6
"http://www.orpha.net/ORDO/Orphanet_108985"	0	1
"http://www.orpha.net/ORDO/Orphanet_108993"	1	3
"http://www.orpha.net/ORDO/Orphanet_1120"	0	1
"http://www.orpha.net/ORDO/Orphanet_126"	1	0
"http://www.orpha.net/ORDO/Orphanet_1305"	0	1
"http://www.orpha.net/ORDO/Orphanet_1486"	0	1
"http://www.orpha.net/ORDO/Orphanet_183548"	0	1
"http://www.orpha.net/ORDO/Orphanet_183554"	0	1
"http://www.orpha.net/ORDO/Orphanet_1928"	0	1
"http://www.orpha.net/ORDO/Orphanet_2005"	0	1
"http://www.orpha.net/ORDO/Orphanet_2042"	0	1
"http://www.orpha.net/ORDO/Orphanet_2257"	0	1
"http://www.orpha.net/ORDO/Orphanet_2407"	0	1
"http://www.orpha.net/ORDO/Orphanet_2414"	0	1
"http://www.orpha.net/ORDO/Orphanet_2470"	0	1
"http://www.orpha.net/ORDO/Orphanet_261559"	0	1
"http://www.orpha.net/ORDO/Orphanet_261572"	0	1
"http://www.orpha.net/ORDO/Orphanet_261579"	0	1
"http://www.orpha.net/ORDO/Orphanet_2805"	0	1
"http://www.orpha.net/ORDO/Orphanet_674"	0	1
"http://www.orpha.net/ORDO/Orphanet_675"	0	1
"http://www.orpha.net/ORDO/Orphanet_95430"	0	1
"http://www.orpha.net/ORDO/Orphanet_95710"	0	1
"http://www.orpha.net/ORDO/Orphanet_98571"	0	1
"http://www.orpha.net/ORDO/Orphanet_98575"	0	1
"http://www.orpha.net/ORDO/Orphanet_98578"	0	1
"http://www.orpha.net/ORDO/Orphanet_994"	0	1
