"Class"	Class Changes	Neighbourhood Changes
"http://www.cidoc-crm.org/cidoc-crm/#E1.CRM_Entity"	22	210
"http://www.cidoc-crm.org/cidoc-crm/#E10.Transfer_of_Custody"	6	72
"http://www.cidoc-crm.org/cidoc-crm/#E11.Modification"	10	77
"http://www.cidoc-crm.org/cidoc-crm/#E12.Production"	6	32
"http://www.cidoc-crm.org/cidoc-crm/#E13.Attribute_Assignment"	4	58
"http://www.cidoc-crm.org/cidoc-crm/#E14.Condition_Assessment"	2	35
"http://www.cidoc-crm.org/cidoc-crm/#E15.Identifier_Assignment"	12	40
"http://www.cidoc-crm.org/cidoc-crm/#E16.Measurement"	7	35
"http://www.cidoc-crm.org/cidoc-crm/#E17.Type_Assignment"	2	50
"http://www.cidoc-crm.org/cidoc-crm/#E18.Physical_Stuff"	25	167
"http://www.cidoc-crm.org/cidoc-crm/#E19.Physical_Object"	22	157
"http://www.cidoc-crm.org/cidoc-crm/#E2.Temporal_Entity"	28	75
"http://www.cidoc-crm.org/cidoc-crm/#E20.Biological_Object"	2	28
"http://www.cidoc-crm.org/cidoc-crm/#E21.Person"	6	41
"http://www.cidoc-crm.org/cidoc-crm/#E22.Man-Made_Object"	6	72
"http://www.cidoc-crm.org/cidoc-crm/#E23.Iconographic_Object"	4	15
"http://www.cidoc-crm.org/cidoc-crm/#E24.Physical_Man-Made_Stuff"	13	150
"http://www.cidoc-crm.org/cidoc-crm/#E25.Man-Made_Feature"	2	15
"http://www.cidoc-crm.org/cidoc-crm/#E26.Physical_Feature"	2	51
"http://www.cidoc-crm.org/cidoc-crm/#E27.Site"	2	2
"http://www.cidoc-crm.org/cidoc-crm/#E28.Conceptual_Object"	13	102
"http://www.cidoc-crm.org/cidoc-crm/#E29.Design_or_Procedure"	6	43
"http://www.cidoc-crm.org/cidoc-crm/#E3.Condition_State"	6	61
"http://www.cidoc-crm.org/cidoc-crm/#E30.Right"	2	41
"http://www.cidoc-crm.org/cidoc-crm/#E31.Document"	2	37
"http://www.cidoc-crm.org/cidoc-crm/#E32.Authority_Document"	6	26
"http://www.cidoc-crm.org/cidoc-crm/#E33.Linguistic_Object"	2	17
"http://www.cidoc-crm.org/cidoc-crm/#E34.Inscription"	2	4
"http://www.cidoc-crm.org/cidoc-crm/#E35.Title"	2	13
"http://www.cidoc-crm.org/cidoc-crm/#E36.Visual_Item"	4	48
"http://www.cidoc-crm.org/cidoc-crm/#E37.Mark"	2	6
"http://www.cidoc-crm.org/cidoc-crm/#E38.Image"	2	4
"http://www.cidoc-crm.org/cidoc-crm/#E39.Actor"	22	181
"http://www.cidoc-crm.org/cidoc-crm/#E4.Period"	6	75
"http://www.cidoc-crm.org/cidoc-crm/#E40.Legal_Body"	8	20
"http://www.cidoc-crm.org/cidoc-crm/#E41.Appellation"	7	83
"http://www.cidoc-crm.org/cidoc-crm/#E42.Object_Identifier"	14	41
"http://www.cidoc-crm.org/cidoc-crm/#E44.Place_Appellation"	2	39
"http://www.cidoc-crm.org/cidoc-crm/#E45.Address"	2	8
"http://www.cidoc-crm.org/cidoc-crm/#E46.Section_Definition"	2	24
"http://www.cidoc-crm.org/cidoc-crm/#E47.Spatial_Coordinates"	2	2
"http://www.cidoc-crm.org/cidoc-crm/#E48.Place_Name"	2	2
"http://www.cidoc-crm.org/cidoc-crm/#E49.Time_Appellation"	2	22
"http://www.cidoc-crm.org/cidoc-crm/#E5.Event"	8	116
"http://www.cidoc-crm.org/cidoc-crm/#E50.Date"	2	2
"http://www.cidoc-crm.org/cidoc-crm/#E51.Contact_Point"	6	63
"http://www.cidoc-crm.org/cidoc-crm/#E52.Time-Span"	13	82
"http://www.cidoc-crm.org/cidoc-crm/#E53.Place"	11	116
"http://www.cidoc-crm.org/cidoc-crm/#E54.Dimension"	6	98
"http://www.cidoc-crm.org/cidoc-crm/#E55.Type"	24	174
"http://www.cidoc-crm.org/cidoc-crm/#E56.Language"	2	26
"http://www.cidoc-crm.org/cidoc-crm/#E57.Material"	4	69
"http://www.cidoc-crm.org/cidoc-crm/#E58.Measurement_Unit"	2	30
"http://www.cidoc-crm.org/cidoc-crm/#E59.Primitive_Value"	3	5
"http://www.cidoc-crm.org/cidoc-crm/#E6.Destruction"	2	25
"http://www.cidoc-crm.org/cidoc-crm/#E61.Time_Primitive"	5	16
"http://www.cidoc-crm.org/cidoc-crm/#E63.Beginning_of_Existence"	9	82
"http://www.cidoc-crm.org/cidoc-crm/#E64.End_of_Existence"	3	49
"http://www.cidoc-crm.org/cidoc-crm/#E65.Conceptual_Creation"	6	50
"http://www.cidoc-crm.org/cidoc-crm/#E66.Formation"	6	43
"http://www.cidoc-crm.org/cidoc-crm/#E67.Birth"	2	15
"http://www.cidoc-crm.org/cidoc-crm/#E68.Dissolution"	2	9
"http://www.cidoc-crm.org/cidoc-crm/#E69.Death"	2	9
"http://www.cidoc-crm.org/cidoc-crm/#E7.Activity"	28	250
"http://www.cidoc-crm.org/cidoc-crm/#E70.Stuff"	18	153
"http://www.cidoc-crm.org/cidoc-crm/#E71.Man-Made_Stuff"	4	98
"http://www.cidoc-crm.org/cidoc-crm/#E72.Legal_Object"	6	98
"http://www.cidoc-crm.org/cidoc-crm/#E73.Information_Object"	9	73
"http://www.cidoc-crm.org/cidoc-crm/#E74.Group"	6	44
"http://www.cidoc-crm.org/cidoc-crm/#E75.Conceptual_Object_Appellation"	2	7
"http://www.cidoc-crm.org/cidoc-crm/#E76.Gender"	5	30
"http://www.cidoc-crm.org/cidoc-crm/#E77.Existence"	10	81
"http://www.cidoc-crm.org/cidoc-crm/#E8.Acquisition"	9	72
"http://www.cidoc-crm.org/cidoc-crm/#E9.Move"	6	61
