"Class"	Class Changes	Neighbourhood Changes
"http://www.cidoc-crm.org/cidoc-crm/#E1.CRM_Entity"	0	0
"http://www.cidoc-crm.org/cidoc-crm/#E10.Transfer_of_Custody"	0	0
"http://www.cidoc-crm.org/cidoc-crm/#E11.Modification"	0	0
"http://www.cidoc-crm.org/cidoc-crm/#E12.Production"	0	0
"http://www.cidoc-crm.org/cidoc-crm/#E13.Attribute_Assignment"	0	0
"http://www.cidoc-crm.org/cidoc-crm/#E14.Condition_Assessment"	0	0
"http://www.cidoc-crm.org/cidoc-crm/#E15.Identifier_Assignment"	0	0
"http://www.cidoc-crm.org/cidoc-crm/#E16.Measurement"	0	0
"http://www.cidoc-crm.org/cidoc-crm/#E17.Type_Assignment"	0	0
"http://www.cidoc-crm.org/cidoc-crm/#E18.Physical_Thing"	0	0
"http://www.cidoc-crm.org/cidoc-crm/#E19.Physical_Object"	0	0
"http://www.cidoc-crm.org/cidoc-crm/#E2.Temporal_Entity"	0	0
"http://www.cidoc-crm.org/cidoc-crm/#E20.Biological_Object"	0	0
"http://www.cidoc-crm.org/cidoc-crm/#E21.Person"	0	0
"http://www.cidoc-crm.org/cidoc-crm/#E22.Man-Made_Object"	0	0
"http://www.cidoc-crm.org/cidoc-crm/#E24.Physical_Man-Made_Thing"	0	0
"http://www.cidoc-crm.org/cidoc-crm/#E25.Man-Made_Feature"	0	0
"http://www.cidoc-crm.org/cidoc-crm/#E26.Physical_Feature"	0	0
"http://www.cidoc-crm.org/cidoc-crm/#E27.Site"	0	0
"http://www.cidoc-crm.org/cidoc-crm/#E28.Conceptual_Object"	0	0
"http://www.cidoc-crm.org/cidoc-crm/#E29.Design_or_Procedure"	0	0
"http://www.cidoc-crm.org/cidoc-crm/#E3.Condition_State"	0	0
"http://www.cidoc-crm.org/cidoc-crm/#E30.Right"	0	0
"http://www.cidoc-crm.org/cidoc-crm/#E31.Document"	0	0
"http://www.cidoc-crm.org/cidoc-crm/#E32.Authority_Document"	0	0
"http://www.cidoc-crm.org/cidoc-crm/#E33.Linguistic_Object"	0	0
"http://www.cidoc-crm.org/cidoc-crm/#E34.Inscription"	0	0
"http://www.cidoc-crm.org/cidoc-crm/#E35.Title"	0	0
"http://www.cidoc-crm.org/cidoc-crm/#E36.Visual_Item"	0	0
"http://www.cidoc-crm.org/cidoc-crm/#E37.Mark"	0	0
"http://www.cidoc-crm.org/cidoc-crm/#E38.Image"	0	0
"http://www.cidoc-crm.org/cidoc-crm/#E39.Actor"	0	0
"http://www.cidoc-crm.org/cidoc-crm/#E4.Period"	0	0
"http://www.cidoc-crm.org/cidoc-crm/#E40.Legal_Body"	0	0
"http://www.cidoc-crm.org/cidoc-crm/#E41.Appellation"	0	0
"http://www.cidoc-crm.org/cidoc-crm/#E42.Identifier"	0	0
"http://www.cidoc-crm.org/cidoc-crm/#E44.Place_Appellation"	0	0
"http://www.cidoc-crm.org/cidoc-crm/#E45.Address"	0	0
"http://www.cidoc-crm.org/cidoc-crm/#E46.Section_Definition"	0	0
"http://www.cidoc-crm.org/cidoc-crm/#E47.Spatial_Coordinates"	0	0
"http://www.cidoc-crm.org/cidoc-crm/#E48.Place_Name"	0	0
"http://www.cidoc-crm.org/cidoc-crm/#E49.Time_Appellation"	0	0
"http://www.cidoc-crm.org/cidoc-crm/#E5.Event"	0	0
"http://www.cidoc-crm.org/cidoc-crm/#E50.Date"	0	0
"http://www.cidoc-crm.org/cidoc-crm/#E51.Contact_Point"	0	0
"http://www.cidoc-crm.org/cidoc-crm/#E52.Time-Span"	0	0
"http://www.cidoc-crm.org/cidoc-crm/#E53.Place"	0	0
"http://www.cidoc-crm.org/cidoc-crm/#E54.Dimension"	0	0
"http://www.cidoc-crm.org/cidoc-crm/#E55.Type"	0	0
"http://www.cidoc-crm.org/cidoc-crm/#E56.Language"	0	0
"http://www.cidoc-crm.org/cidoc-crm/#E57.Material"	0	0
"http://www.cidoc-crm.org/cidoc-crm/#E58.Measurement_Unit"	0	0
"http://www.cidoc-crm.org/cidoc-crm/#E59.Primitive_Value"	0	0
"http://www.cidoc-crm.org/cidoc-crm/#E6.Destruction"	0	0
"http://www.cidoc-crm.org/cidoc-crm/#E60.Number"	0	0
"http://www.cidoc-crm.org/cidoc-crm/#E61.Time_Primitive"	0	0
"http://www.cidoc-crm.org/cidoc-crm/#E62.String"	0	0
"http://www.cidoc-crm.org/cidoc-crm/#E63.Beginning_of_Existence"	0	0
"http://www.cidoc-crm.org/cidoc-crm/#E64.End_of_Existence"	0	0
"http://www.cidoc-crm.org/cidoc-crm/#E65.Creation"	0	0
"http://www.cidoc-crm.org/cidoc-crm/#E66.Formation"	0	0
"http://www.cidoc-crm.org/cidoc-crm/#E67.Birth"	0	0
"http://www.cidoc-crm.org/cidoc-crm/#E68.Dissolution"	0	0
"http://www.cidoc-crm.org/cidoc-crm/#E69.Death"	0	0
"http://www.cidoc-crm.org/cidoc-crm/#E7.Activity"	0	0
"http://www.cidoc-crm.org/cidoc-crm/#E70.Thing"	0	0
"http://www.cidoc-crm.org/cidoc-crm/#E71.Man-Made_Thing"	0	0
"http://www.cidoc-crm.org/cidoc-crm/#E72.Legal_Object"	0	0
"http://www.cidoc-crm.org/cidoc-crm/#E73.Information_Object"	0	0
"http://www.cidoc-crm.org/cidoc-crm/#E74.Group"	0	0
"http://www.cidoc-crm.org/cidoc-crm/#E75.Conceptual_Object_Appellation"	0	0
"http://www.cidoc-crm.org/cidoc-crm/#E77.Persistent_Item"	0	0
"http://www.cidoc-crm.org/cidoc-crm/#E78.Collection"	0	0
"http://www.cidoc-crm.org/cidoc-crm/#E79.Part_Addition"	0	0
"http://www.cidoc-crm.org/cidoc-crm/#E8.Acquisition"	0	0
"http://www.cidoc-crm.org/cidoc-crm/#E80.Part_Removal"	0	0
"http://www.cidoc-crm.org/cidoc-crm/#E81.Transformation"	0	0
"http://www.cidoc-crm.org/cidoc-crm/#E82.Actor_Appellation"	0	0
"http://www.cidoc-crm.org/cidoc-crm/#E83.Type_Creation"	0	0
"http://www.cidoc-crm.org/cidoc-crm/#E84.Information_Carrier"	0	0
"http://www.cidoc-crm.org/cidoc-crm/#E85.Joining"	0	0
"http://www.cidoc-crm.org/cidoc-crm/#E86.Leaving"	0	0
"http://www.cidoc-crm.org/cidoc-crm/#E87.Curation_Activity"	0	0
"http://www.cidoc-crm.org/cidoc-crm/#E89.Propositional_Object"	0	0
"http://www.cidoc-crm.org/cidoc-crm/#E9.Move"	0	0
"http://www.cidoc-crm.org/cidoc-crm/#E90.Symbolic_Object"	0	0
