"Class"	Class Changes	Neighbourhood Changes
"http://www.cidoc-crm.org/cidoc-crm/#E1"	0	0
"http://www.cidoc-crm.org/cidoc-crm/#E10"	0	0
"http://www.cidoc-crm.org/cidoc-crm/#E11"	0	0
"http://www.cidoc-crm.org/cidoc-crm/#E12"	0	0
"http://www.cidoc-crm.org/cidoc-crm/#E13"	0	0
"http://www.cidoc-crm.org/cidoc-crm/#E14"	0	0
"http://www.cidoc-crm.org/cidoc-crm/#E15"	0	0
"http://www.cidoc-crm.org/cidoc-crm/#E16"	0	0
"http://www.cidoc-crm.org/cidoc-crm/#E17"	0	0
"http://www.cidoc-crm.org/cidoc-crm/#E18"	0	0
"http://www.cidoc-crm.org/cidoc-crm/#E19"	0	0
"http://www.cidoc-crm.org/cidoc-crm/#E2"	0	0
"http://www.cidoc-crm.org/cidoc-crm/#E20"	0	0
"http://www.cidoc-crm.org/cidoc-crm/#E21"	0	0
"http://www.cidoc-crm.org/cidoc-crm/#E22"	0	0
"http://www.cidoc-crm.org/cidoc-crm/#E24"	0	0
"http://www.cidoc-crm.org/cidoc-crm/#E25"	0	0
"http://www.cidoc-crm.org/cidoc-crm/#E26"	0	0
"http://www.cidoc-crm.org/cidoc-crm/#E27"	0	0
"http://www.cidoc-crm.org/cidoc-crm/#E28"	0	0
"http://www.cidoc-crm.org/cidoc-crm/#E29"	0	0
"http://www.cidoc-crm.org/cidoc-crm/#E3"	0	0
"http://www.cidoc-crm.org/cidoc-crm/#E30"	0	0
"http://www.cidoc-crm.org/cidoc-crm/#E31"	0	0
"http://www.cidoc-crm.org/cidoc-crm/#E32"	0	0
"http://www.cidoc-crm.org/cidoc-crm/#E33"	0	0
"http://www.cidoc-crm.org/cidoc-crm/#E34"	0	0
"http://www.cidoc-crm.org/cidoc-crm/#E35"	0	0
"http://www.cidoc-crm.org/cidoc-crm/#E36"	0	0
"http://www.cidoc-crm.org/cidoc-crm/#E37"	0	0
"http://www.cidoc-crm.org/cidoc-crm/#E38"	0	0
"http://www.cidoc-crm.org/cidoc-crm/#E39"	0	0
"http://www.cidoc-crm.org/cidoc-crm/#E4"	0	0
"http://www.cidoc-crm.org/cidoc-crm/#E40"	0	0
"http://www.cidoc-crm.org/cidoc-crm/#E41"	0	0
"http://www.cidoc-crm.org/cidoc-crm/#E42"	0	0
"http://www.cidoc-crm.org/cidoc-crm/#E44"	0	0
"http://www.cidoc-crm.org/cidoc-crm/#E45"	0	0
"http://www.cidoc-crm.org/cidoc-crm/#E46"	0	0
"http://www.cidoc-crm.org/cidoc-crm/#E47"	0	0
"http://www.cidoc-crm.org/cidoc-crm/#E48"	0	0
"http://www.cidoc-crm.org/cidoc-crm/#E49"	0	0
"http://www.cidoc-crm.org/cidoc-crm/#E5"	0	0
"http://www.cidoc-crm.org/cidoc-crm/#E50"	0	0
"http://www.cidoc-crm.org/cidoc-crm/#E51"	0	0
"http://www.cidoc-crm.org/cidoc-crm/#E52"	0	0
"http://www.cidoc-crm.org/cidoc-crm/#E53"	0	0
"http://www.cidoc-crm.org/cidoc-crm/#E54"	0	0
"http://www.cidoc-crm.org/cidoc-crm/#E55"	0	0
"http://www.cidoc-crm.org/cidoc-crm/#E56"	0	0
"http://www.cidoc-crm.org/cidoc-crm/#E57"	0	0
"http://www.cidoc-crm.org/cidoc-crm/#E58"	0	0
"http://www.cidoc-crm.org/cidoc-crm/#E6"	0	0
"http://www.cidoc-crm.org/cidoc-crm/#E63"	0	0
"http://www.cidoc-crm.org/cidoc-crm/#E64"	0	0
"http://www.cidoc-crm.org/cidoc-crm/#E65"	0	0
"http://www.cidoc-crm.org/cidoc-crm/#E66"	0	0
"http://www.cidoc-crm.org/cidoc-crm/#E67"	0	0
"http://www.cidoc-crm.org/cidoc-crm/#E68"	0	0
"http://www.cidoc-crm.org/cidoc-crm/#E69"	0	0
"http://www.cidoc-crm.org/cidoc-crm/#E7"	0	0
"http://www.cidoc-crm.org/cidoc-crm/#E70"	0	0
"http://www.cidoc-crm.org/cidoc-crm/#E71"	0	0
"http://www.cidoc-crm.org/cidoc-crm/#E72"	0	0
"http://www.cidoc-crm.org/cidoc-crm/#E73"	0	0
"http://www.cidoc-crm.org/cidoc-crm/#E74"	0	0
"http://www.cidoc-crm.org/cidoc-crm/#E75"	0	0
"http://www.cidoc-crm.org/cidoc-crm/#E77"	0	0
"http://www.cidoc-crm.org/cidoc-crm/#E78"	0	0
"http://www.cidoc-crm.org/cidoc-crm/#E79"	0	0
"http://www.cidoc-crm.org/cidoc-crm/#E8"	0	0
"http://www.cidoc-crm.org/cidoc-crm/#E80"	0	0
"http://www.cidoc-crm.org/cidoc-crm/#E81"	0	0
"http://www.cidoc-crm.org/cidoc-crm/#E82"	0	0
"http://www.cidoc-crm.org/cidoc-crm/#E83"	0	0
"http://www.cidoc-crm.org/cidoc-crm/#E84"	0	0
"http://www.cidoc-crm.org/cidoc-crm/#E85"	0	0
"http://www.cidoc-crm.org/cidoc-crm/#E86"	0	0
"http://www.cidoc-crm.org/cidoc-crm/#E87"	0	0
"http://www.cidoc-crm.org/cidoc-crm/#E89"	0	0
"http://www.cidoc-crm.org/cidoc-crm/#E9"	0	0
"http://www.cidoc-crm.org/cidoc-crm/#E90"	0	0
